[gd_scene load_steps=3 format=2]

[ext_resource path="res://images/placeholders/tiles_assembled_placeholder_2.png" type="Texture" id=1]
[ext_resource path="res://prefabs/DefaultTilePrefab.tscn" type="PackedScene" id=2]

[node name="DefaultTilePrefab" instance=ExtResource( 2 )]

[node name="TilesAssembledPlaceholder3" type="Sprite" parent="placeForInnerPicture" index="0"]
position = Vector2( 1.11111, 0 )
texture = ExtResource( 1 )
